   _   ______             __     _                                        _________                            __         _                        ______                               _                     _    
  / / |_   _ `.          [  |   (_)                                      |  _   _  |                          [  |  _    (_)                     .' ____ \                             (_)                   \ \   
 / /    | | `. \  .---.   | |   __    _   __   .---.   _ .--.    _   __  |_/ | | \_|  _ .--.   ,--.    .---.   | | / ]   __    _ .--.     .--./) | (___ \_|  .---.   _ .--.   _   __   __    .---.   .---.    \ \  
< <     | |  | | / /__\\  | |  [  |  [ \ [  ] / /__\\ [ `/'`\]  [ \ [  ]     | |     [ `/'`\] `'_\ :  / /'`\]  | '' <   [  |  [ `.-. |   / /'`\;  _.____`.  / /__\\ [ `/'`\] [ \ [  ] [  |  / /'`\] / /__\\    > > 
 \ \   _| |_.' / | \__.,  | |   | |   \ \/ /  | \__.,  | |       \ '/ /     _| |_     | |     // | |, | \__.   | |`\ \   | |   | | | |   \ \._// | \____) | | \__.,  | |      \ \/ /   | |  | \__.  | \__.,   / /  
  \_\ |______.'   '.__.' [___] [___]   \__/    '.__.' [___]    [\_:  /     |_____|   [___]    \'-;__/ '.___.' [__|  \_] [___] [___||__]  .',__`   \______.'  '.__.' [___]      \__/   [___] '.___.'  '.__.'  /_/   
                                                                \__.'                                                                   ( ( __))                                                                   